…
Full join of all city data
==========================

``` r
paris_rome <- paris2 %>%
  full_join(rome2)
```

    ## Joining, by = c("room_id", "room_type", "city", "reviews", "overall_satisfaction", "accommodates", "bedrooms", "price", "latitude", "longitude", "rating_cat", "accommodate_cat")

``` r
paris_rome
```

    ## # A tibble: 70,945 x 12
    ##     room_id   room_type  city reviews overall_satisfaction accommodates
    ##       <int>       <chr> <chr>   <int>                <dbl>        <int>
    ##  1 10047973 Shared room Paris       1                  0.0            4
    ##  2  2864617 Shared room Paris      32                  4.0            5
    ##  3 16103729 Shared room Paris       4                  4.5            4
    ##  4  7027668 Shared room Paris      29                  3.5            2
    ##  5  1725709 Shared room Paris       4                  5.0            2
    ##  6  8006501 Shared room Paris       7                  5.0            2
    ##  7  7178563 Shared room Paris       1                  0.0            2
    ##  8  8484250 Shared room Paris      10                  5.0            2
    ##  9 19165802 Shared room Paris       1                  0.0            2
    ## 10 11270024 Shared room Paris       3                  4.5            2
    ## # ... with 70,935 more rows, and 6 more variables: bedrooms <dbl>,
    ## #   price <dbl>, latitude <dbl>, longitude <dbl>, rating_cat <chr>,
    ## #   accommodate_cat <chr>

``` r
allcities <- paris_rome %>%
  full_join(vienna2)
```

    ## Joining, by = c("room_id", "room_type", "city", "reviews", "overall_satisfaction", "accommodates", "bedrooms", "price", "latitude", "longitude", "rating_cat", "accommodate_cat")

``` r
allcities
```

    ## # A tibble: 78,129 x 12
    ##     room_id   room_type  city reviews overall_satisfaction accommodates
    ##       <int>       <chr> <chr>   <int>                <dbl>        <int>
    ##  1 10047973 Shared room Paris       1                  0.0            4
    ##  2  2864617 Shared room Paris      32                  4.0            5
    ##  3 16103729 Shared room Paris       4                  4.5            4
    ##  4  7027668 Shared room Paris      29                  3.5            2
    ##  5  1725709 Shared room Paris       4                  5.0            2
    ##  6  8006501 Shared room Paris       7                  5.0            2
    ##  7  7178563 Shared room Paris       1                  0.0            2
    ##  8  8484250 Shared room Paris      10                  5.0            2
    ##  9 19165802 Shared room Paris       1                  0.0            2
    ## 10 11270024 Shared room Paris       3                  4.5            2
    ## # ... with 78,119 more rows, and 6 more variables: bedrooms <dbl>,
    ## #   price <dbl>, latitude <dbl>, longitude <dbl>, rating_cat <chr>,
    ## #   accommodate_cat <chr>
…
``` r
rome3 <- rome2 %>%
  filter(overall_satisfaction=="5", room_type=="Private room") 
rome3
```

    ## # A tibble: 2,091 x 12
    ##     room_id    room_type  city reviews overall_satisfaction accommodates
    ##       <int>        <chr> <chr>   <int>                <dbl>        <int>
    ##  1 10543268 Private room  Rome       9                    5            2
    ##  2 13210900 Private room  Rome      23                    5            2
    ##  3  5877483 Private room  Rome       6                    5            4
    ##  4 11710388 Private room  Rome      36                    5            2
    ##  5 15979191 Private room  Rome      10                    5            4
    ##  6 11711924 Private room  Rome      25                    5            2
    ##  7  3885201 Private room  Rome       3                    5            3
    ##  8  3874555 Private room  Rome       3                    5            3
    ##  9  6144843 Private room  Rome      16                    5            2
    ## 10  4129845 Private room  Rome       7                    5            5
    ## # ... with 2,081 more rows, and 6 more variables: bedrooms <dbl>,
    ## #   price <dbl>, latitude <dbl>, longitude <dbl>, rating_cat <chr>,
    ## #   accommodate_cat <chr>
…
